^D:\PROJECTS\C++\PROJECT\SKILLBOX\1.HELLOWORLD\HELLOWORLD\HELLOWORLD.CPP
D:\PROJECTS\C++\PROJECT\SKILLBOX\1.HELLOWORLD\HELLOWORLD\DEBUG\VC142.PDB
D:\PROJECTS\C++\PROJECT\SKILLBOX\1.HELLOWORLD\HELLOWORLD\DEBUG\VC142.IDB
D:\PROJECTS\C++\PROJECT\SKILLBOX\1.HELLOWORLD\HELLOWORLD\DEBUG\HELLOWORLD.OBJ
